<svg width="24.000000" height="24.000000" viewBox="0 0 24 24" fill="none" xmlns="http://www.w3.org/2000/svg" xmlns:xlink="http://www.w3.org/1999/xlink">
	<desc>
			Created with Pixso.
	</desc>
	<defs/>
	<rect id="Play" width="24.000000" height="24.000000" fill="#FFFFFF" fill-opacity="0"/>
	<path id="Path 2" d="M19.64 12.84C20.26 12.45 20.26 11.54 19.64 11.15L6.53 2.95C5.86 2.53 5 3.01 5 3.8L5 20.19C5 20.98 5.86 21.46 6.53 21.04L19.64 12.84Z" fill="#000000" fill-opacity="1.000000" fill-rule="nonzero"/>
	<path id="Path 2" d="M6.53 2.95C5.86 2.53 5 3.01 5 3.8L5 20.19C5 20.98 5.86 21.46 6.53 21.04L19.64 12.84C20.26 12.45 20.26 11.54 19.64 11.15L6.53 2.95Z" stroke="#979797" stroke-opacity="0" stroke-width="0.000000"/>
</svg>
